module gitlab.com/Vaqif/gin

go 1.15

require (
	github.com/dgrijalva/jwt-go v3.2.0+incompatible
	github.com/gin-gonic/gin v1.6.3
	github.com/jinzhu/gorm v1.9.16 // indirect
	github.com/jmoiron/sqlx v1.3.1
	github.com/lib/pq v1.10.0
	github.com/sirupsen/logrus v1.8.1
	github.com/spf13/viper v1.7.1
)
